20180725|car_re|0|0.000
20180725|star_re|0|0.000
20180725|adv_re|0|0.000
20180726|car_re|0|0.000
20180726|star_re|0|0.000
20180726|adv_re|0|0.000
20180727|car_re|0|0.000
20180727|star_re|0|0.000
20180727|adv_re|0|0.000
20180728|car_re|0|0.000
20180728|star_re|0|0.000
20180728|adv_re|0|0.000
20180729|car_re|0|0.000
20180729|star_re|0|0.000
20180729|adv_re|0|0.000
20180730|car_re|0|0.000
20180730|star_re|0|0.000
20180730|adv_re|1|0.001